         313989 function calls in 1.262 seconds

   Ordered by: internal time

   ncalls  tottime  percall  cumtime  percall filename:lineno(function)
   156993    0.637    0.000    0.637    0.000 {method 'next_prime' of 'sage.rings.integer.Integer' objects}
   156993    0.358    0.000    0.994    0.000 misc.py:1029(next_prime)
        1    0.268    0.268    1.262    1.262 <ipython-input-1-cb18675b2de3>:1(subintervalo2)
        1    0.000    0.000    1.262    1.262 <string>:1(<module>)
        1    0.000    0.000    0.000    0.000 {method 'disable' of '_lsprof.Profiler' objects}